%YAML 1.1
%TAG !u! tag:unity3d.com,2011:
--- !u!1 &643144982079282387
GameObject:
  m_ObjectHideFlags: 0
  m_CorrespondingSourceObject: {fileID: 0}
  m_PrefabInstance: {fileID: 0}
  m_PrefabAsset: {fileID: 0}
  serializedVersion: 6
  m_Component:
  - component: {fileID: 643144982079282384}
  - component: {fileID: 643144982079282385}
  m_Layer: 0
  m_Name: EnemySpawner
  m_TagString: Untagged
  m_Icon: {fileID: 0}
  m_NavMeshLayer: 0
  m_StaticEditorFlags: 0
  m_IsActive: 1
--- !u!4 &643144982079282384
Transform:
  m_ObjectHideFlags: 0
  m_CorrespondingSourceObject: {fileID: 0}
  m_PrefabInstance: {fileID: 0}
  m_PrefabAsset: {fileID: 0}
  m_GameObject: {fileID: 643144982079282387}
  m_LocalRotation: {x: 0, y: 0, z: 0, w: 1}
  m_LocalPosition: {x: 10.01, y: 0, z: 0}
  m_LocalScale: {x: 1, y: 1, z: 1}
  m_ConstrainProportionsScale: 0
  m_Children: []
  m_Father: {fileID: 0}
  m_RootOrder: 0
  m_LocalEulerAnglesHint: {x: 0, y: 0, z: 0}
--- !u!114 &643144982079282385
MonoBehaviour:
  m_ObjectHideFlags: 0
  m_CorrespondingSourceObject: {fileID: 0}
  m_PrefabInstance: {fileID: 0}
  m_PrefabAsset: {fileID: 0}
  m_GameObject: {fileID: 643144982079282387}
  m_Enabled: 1
  m_EditorHideFlags: 0
  m_Script: {fileID: 11500000, guid: 303f9886a3ad78d448e360c4945fa5fb, type: 3}
  m_Name: 
  m_EditorClassIdentifier: 
  enemyFolder: {fileID: 0}
  baseEnemyPrefab: {fileID: 8926742006755125989, guid: a09bbc1740d4f55428f5086c577667da, type: 3}
  stats:
  - maxHealth: 25
    damage: 8
    horizontalSpeed: 4
    verticalSpeed: 0.4
    shootCoolDownSeconds: 1.5
    sprite: {fileID: 21300000, guid: 2b8dc303e0fba1a4588556f220936760, type: 3}
  - maxHealth: 15
    damage: 5
    horizontalSpeed: 8
    verticalSpeed: 0.7
    shootCoolDownSeconds: 0.5
    sprite: {fileID: 21300000, guid: d0ee9c3fd0646424f8c3fcbc1c074b5c, type: 3}
  - maxHealth: 30
    damage: 11
    horizontalSpeed: 2
    verticalSpeed: 0.2
    shootCoolDownSeconds: 2.5
    sprite: {fileID: 21300000, guid: 82253e24770055444afdce6e93e2fe71, type: 3}
  minTimeSpawn: 1
  maxTimeSpawn: 2
